ligne "line0" {
    "s0": 0.0,
    "s1": 1,
    "s2": 4,
    "s3": 6,
    "s4": 7
}
ligne "line1" {
    "s4": 0.0,
    "s6": 3.0,
    "s7": 5.0
}
ligne "line2" {
    "s8": 0.0,
    "s9": 2,
    "s10": 5.0 }