ligne "line0" {
    "s0": 0.0,
    "s1": 1,
    "s2": 4,
    "s3": 6,
    "s4": 7
}
ligne "line1" {
    "s0: 0.0,
    "s3": 3.0,
    "s5": 5.0
}
ligne "line2" {
    "s1": 0.0,
    "s5": 2,
    "s4": 5.0 }